<svg width="16" height="16" viewBox="0 0 16 16" fill="none" xmlns="http://www.w3.org/2000/svg">
<path d="M6.56834 13.3795C3.71302 12.5918 1.84229 10.1303 1.84229 7.27501C1.84229 3.82893 4.69761 0.973602 8.14369 0.973602C11.5898 0.973602 14.4451 3.82893 14.4451 7.27501C14.4451 10.1303 12.5744 12.5918 9.81751 13.3795H9.71905L8.04523 14.9549L6.56834 13.3795Z" fill="#DB0000"/>
<path d="M8.04583 1.36787C11.295 1.36787 13.9534 4.02627 13.9534 7.27544C13.9534 9.93384 12.1811 12.2969 9.52273 12.9861L9.32581 13.0845L9.22735 13.183L8.04583 14.3645L6.86432 13.183L6.76586 13.0845L6.56894 12.9861C3.91053 12.2969 2.13826 10.0323 2.13826 7.27544C2.13826 4.02627 4.79667 1.36787 8.04583 1.36787ZM8.04583 0.67865C4.40283 0.67865 1.35059 3.63244 1.35059 7.3739C1.35059 10.4261 3.41824 13.0845 6.27356 13.7738L8.04583 15.4476L9.71964 13.7738C12.575 12.9861 14.6426 10.4261 14.6426 7.3739C14.7411 3.63244 11.6888 0.67865 8.04583 0.67865Z" fill="#840000"/>
<path d="M11.8868 6.68471C11.6899 6.68471 11.5915 6.78317 11.5915 6.98009H11.0007C10.9022 6.38933 10.7053 5.89703 10.4099 5.40474L10.9022 4.91244C11.0007 5.0109 11.1976 5.0109 11.3945 4.91244C11.493 4.81398 11.493 4.61706 11.3945 4.42014L10.8038 4.12476C10.7053 4.0263 10.5084 4.0263 10.3115 4.12476C10.213 4.22322 10.213 4.42014 10.3115 4.5186L9.81919 5.0109C9.42535 4.71552 8.8346 4.42014 8.3423 4.42014V3.73092C8.53922 3.73092 8.63768 3.63246 8.63768 3.43555C8.63768 3.23863 8.53922 3.14017 8.3423 3.14017H7.75154C7.55462 3.14017 7.45616 3.23863 7.45616 3.43555C7.45616 3.63246 7.55462 3.73092 7.75154 3.73092V4.42014C7.16078 4.42014 6.66849 4.71552 6.17619 5.0109L5.78235 4.5186C5.88081 4.42014 5.88081 4.22322 5.78235 4.0263C5.58543 4.0263 5.38851 4.0263 5.29005 4.12476L4.89622 4.5186C4.79776 4.61706 4.79776 4.81398 4.89622 5.0109C4.99468 5.10936 5.19159 5.10936 5.29005 5.0109L5.78235 5.5032C5.38851 5.89703 5.19159 6.38933 5.09313 6.98009H4.50238C4.50238 6.78317 4.40392 6.68471 4.207 6.68471C4.01008 6.68471 3.91162 6.78317 3.91162 6.98009V7.57084C3.91162 7.76776 4.01008 7.86622 4.207 7.86622C4.40392 7.86622 4.50238 7.76776 4.50238 7.57084H5.09313C5.19159 8.1616 5.38851 8.6539 5.68389 9.04774L5.19159 9.54003C5.09313 9.44158 4.89622 9.44158 4.79776 9.54003C4.6993 9.63849 4.6993 9.83541 4.79776 10.0323L5.29005 10.5246C5.38851 10.6231 5.58543 10.6231 5.78235 10.5246C5.88081 10.4262 5.88081 10.2293 5.78235 10.0323L6.27465 9.54003C6.66849 9.83541 7.25924 10.1308 7.75154 10.1308V10.82C7.55462 10.82 7.45616 10.9185 7.45616 11.1154C7.45616 11.3123 7.55462 11.4108 7.75154 11.4108H8.3423C8.53922 11.4108 8.63768 11.3123 8.63768 11.1154C8.63768 10.9185 8.53922 10.82 8.3423 10.82V10.1308C8.93306 10.0323 9.42535 9.83541 9.81919 9.54003L10.3115 10.0323C10.213 10.1308 10.213 10.3277 10.3115 10.4262C10.4099 10.5246 10.6069 10.5246 10.8038 10.4262L11.2961 9.93387C11.3945 9.83541 11.3945 9.63849 11.2961 9.44157C11.1976 9.34312 11.0007 9.34312 10.8038 9.44157L10.3115 8.94928C10.6069 8.55544 10.9022 7.96468 10.9022 7.37393H11.5915C11.5915 7.57084 11.6899 7.6693 11.8868 7.6693C12.0838 7.6693 12.1822 7.57084 12.1822 7.37393V6.98009C12.2807 6.78317 12.0838 6.68471 11.8868 6.68471ZM8.73614 5.60165C8.93306 5.60165 9.12998 5.79857 9.12998 5.99549C9.12998 6.19241 8.93306 6.38933 8.73614 6.38933C8.53922 6.38933 8.3423 6.29087 8.3423 5.99549C8.3423 5.79857 8.53922 5.60165 8.73614 5.60165ZM8.04692 7.6693C7.85 7.6693 7.65308 7.47239 7.65308 7.27547C7.65308 7.07855 7.85 6.88163 8.04692 6.88163C8.24384 6.88163 8.44076 7.07855 8.44076 7.27547C8.44076 7.47239 8.24384 7.6693 8.04692 7.6693ZM7.3577 5.60165C7.55462 5.60165 7.75154 5.79857 7.75154 5.99549C7.75154 6.19241 7.55462 6.38933 7.3577 6.38933C7.16078 6.38933 6.86541 6.29087 6.86541 5.99549C6.86541 5.79857 7.06233 5.60165 7.3577 5.60165ZM6.57003 7.6693C6.37311 7.6693 6.17619 7.47239 6.17619 7.27547C6.17619 7.07855 6.37311 6.88163 6.57003 6.88163C6.76695 6.88163 6.96387 7.07855 6.96387 7.27547C6.96387 7.47239 6.76695 7.6693 6.57003 7.6693ZM7.3577 8.94928C7.06233 8.94928 6.86541 8.75236 6.86541 8.55544C6.86541 8.35852 7.06232 8.1616 7.25924 8.1616C7.45616 8.1616 7.65308 8.35852 7.65308 8.55544C7.75154 8.75236 7.55462 8.94928 7.3577 8.94928ZM8.73614 8.94928C8.53922 8.94928 8.3423 8.75236 8.3423 8.55544C8.3423 8.35852 8.53922 8.1616 8.73614 8.1616C8.93306 8.1616 9.12998 8.35852 9.12998 8.55544C9.22843 8.75236 9.03152 8.94928 8.73614 8.94928ZM9.12998 7.27547C9.12998 7.07855 9.32689 6.88163 9.52381 6.88163C9.72073 6.88163 9.91765 7.07855 9.91765 7.27547C9.91765 7.47239 9.72073 7.6693 9.52381 7.6693C9.32689 7.6693 9.12998 7.47239 9.12998 7.27547Z" fill="white"/>
</svg>
